Slim Tapered Michael Fit
Size	28	30	32	34	36	38	40
Inseam	33	33	33	33	33	33	33
Seat	14 3/4	15 1/4	15 9/4	16 7/4	17 5/4	18 3/4	19 1/4
Thigh	8 5/4	8 9/4	9 3/4	9 7/4	10 1/4	10 5/4	10 9/4
Waist	28.5	30.5	32.5	34.5	36.5	38.5	40.5
